module gitlab.com/devscola/kanban-news

go 1.12

require (
	github.com/gin-contrib/sse v0.1.0 // indirect
	github.com/gin-gonic/gin v1.4.0
	github.com/mattn/go-isatty v0.0.8 // indirect
	github.com/stretchr/objx v0.2.0 // indirect
	github.com/ugorji/go v1.1.7 // indirect
	golang.org/x/crypto v0.0.0-20190701094942-4def268fd1a4 // indirect
	golang.org/x/net v0.0.0-20190628185345-da137c7871d7 // indirect
	golang.org/x/sys v0.0.0-20190626221950-04f50cda93cb // indirect
	golang.org/x/text v0.3.2 // indirect
	golang.org/x/tools v0.0.0-20190703212419-2214986f1668 // indirect
	gopkg.in/check.v1 v1.0.0-20180628173108-788fd7840127 // indirect
)
